Speed Testing: Three Levels – paRticles
…
  group_by(tailnum) |>
  summarise(
    mean_air_time = mean(air_time),
    sd_air_time = sd(air_time),
    n = n(),
    delay_score = sum((dep_delay)^2) / n()
  ) |>
  left_join(planes, by = "tailnum") |>
  mutate(
    model_length = str_length(model),
    manufacturer_upper = str_to_upper(manufacturer)
  ) |>
  filter(!is.na(model_length), n > 50) |>
  arrange(desc(delay_score))
#> # A tibble: 2,906 × 15
#>    tailnum mean_air_time sd_air_time     n delay_score  year type   manufacturer
#>    <chr>           <dbl>       <dbl> <int>       <dbl> <int> <chr>  <chr>       
#>  1 N384HA          626.        24.8    330      51368.  2011 Fixed… AIRBUS      
#>  2 N276AT          114.         8.41    60      37738.  2005 Fixed… BOEING      
#>  3 N6716C          202.        86.4    250      32628.  2001 Fixed… BOEING      
#>  4 N550NW          108.         3.56    70      24047.  2001 Fixed… BOEING      
#>  5 N203FR          233.        16.9    410      21445.  2002 Fixed… AIRBUS INDU…
#>  6 N184DN          239.       107.     160      18789.  1993 Fixed… BOEING      
#>  7 N521VA          334.        15.4    270      18686.  2006 Fixed… AIRBUS      
#>  8 N927DA          137.        21.3    820      17802.  1988 Fixed… MCDONNELL D…
#>  9 N635AA          185.        58.1    290      15948.  1990 Fixed… BOEING      
#> 10 N923FJ           90.2        7.47   120      15756.  2004 Fixed… BOMBARDIER …
#> # ℹ 2,896 more rows
#> # ℹ 7 more variables: model <chr>, engines <int>, seats <int>, speed <int>,
#> #   engine <chr>, model_length <int>, manufacturer_upper <chr>
…
